A

B

A

A
B

A
B

Darrel Harding
Daniel Fairbairn

Roscoe Wallis
Shanon Ikin

Jeffery Hilton

Kennedy Bone

Quincy Oliver

Bertrand Rowntree

Dwayne Clarkson

Kenneth Benjaminson

Nathan Peter

Carlton Langley
