Candidate #2

Candidate #1

Candidate #7

Candidate #12

Candidate #1

Candidate #3

Candidate #3

Candidate #4

Candidate #3

Candidate #3

Candidate #5
Candidate #7

Candidate #18

Candidate #12

Candidate #8

Candidate #15
